{
  "data": [
    {
      "id": 77084,
      "common_name": "Downy oak",
      "slug": "quercus-pubescens",
      "scientific_name": "Quercus pubescens",
      "year": 1796,
      "bibliography": "Berlin. Baumz.: 279 (1796)",
      "author": "Willd.",
      "status": "accepted",
      "rank": "species",
      "family_common_name": null,
      "genus_id": 3519,
      "image_url": "https://bs.plantnet.org/image/o/bf115f5afb11760a269f264c2386818c5a33ffbe",
      "synonyms": [
        "Quercus sessiliflora var. pubescens",
        "Quercus brevipedunculata var. pubescens",
        "Quercus robur var. pubescens",
        "Quercus alba var. pubescens"
      ],
      "genus": "Quercus",
      "family": "Fagaceae",
      "links": {
        "self": "/api/v1/species/quercus-pubescens",
        "plant": "/api/v1/plants/quercus-pubescens",
        "genus": "/api/v1/genus/quercus"
      }
    },
    {
      "id": 77118,
      "common_name": "Northern red oak",
      "slug": "quercus-rubra",
      "scientific_name": "Quercus rubra",
      "year": 1753,
      "bibliography": "Sp. Pl.: 996 (1753)",
      "author": "L.",
      "status": "accepted",
      "rank": "species",
      "family_common_name": null,
      "genus_id": 3519,
      "image_url": "https://bs.plantnet.org/image/o/7b2dc9442a14254732804194e87628585d8e4bc6",
      "synonyms": [
        "Quercus cuneata",
        "Quercus michauxii",
        "Quercus acerifolia",
        "Quercus rubra var. pendula",
        "Quercus borealis f. flabellata",
        "Quercus rubra f. cuneata",
        "Quercus coccinea var. ambigua",
        "Quercus sada",
        "Quercus rubra var. ambigua",
        "Quercus rubra var. borealis",
        "Quercus rubra var. ramosissima",
        "Quercus rubra var. subserrata",
        "Erythrobalanus rubra",
        "Quercus rubra f. obovata",
        "Quercus borealis var. flabellata",
        "Quercus borealis var. maxima",
        "Quercus maxima",
        "Quercus rubra var. latifolia",
        "Quercus angulizana",
        "Quercus rubra var. maxima",
        "Quercus rubra var. hispanica",
        "Quercus rubra f. houbae",
        "Quercus rubra f. juvenilis",
        "Quercus rubra var. latepinnatifida",
        "Quercus borealis"
      ],
      "genus": "Quercus",
      "family": "Fagaceae",
      "links": {
        "self": "/api/v1/species/quercus-rubra",
        "plant": "/api/v1/plants/quercus-rubra",
        "genus": "/api/v1/genus/quercus"
      }
    },
    {
      "id": 77051,
      "common_name": "Sessile oak",
      "slug": "quercus-petraea",
      "scientific_name": "Quercus petraea",
      "year": 1784,
      "bibliography": "Fl. Fuld.: 403 (1784)",
      "author": "(Matt.) Liebl.",
      "status": "accepted",
      "rank": "species",
      "family_common_name": null,
      "genus_id": 3519,
      "image_url": "https://bs.plantnet.org/image/o/25ca9dc44f385cd7861b424a200c824c73c88db6",
      "synonyms": [
        "Quercus petraea f. normalis",
        "Quercus robur var. petraea"
      ],
      "genus": "Quercus",
      "family": "Fagaceae",
      "links": {
        "self": "/api/v1/species/quercus-petraea",
        "plant": "/api/v1/plants/quercus-petraea",
        "genus": "/api/v1/genus/quercus"
      }
    },
    {
      "id": 76655,
      "common_name": "Kermes oak",
      "slug": "quercus-coccifera",
      "scientific_name": "Quercus coccifera",
      "year": 1753,
      "bibliography": "Sp. Pl.: 995 (1753)",
      "author": "L.",
      "status": "accepted",
      "rank": "species",
      "family_common_name": null,
      "genus_id": 3519,
      "image_url": "https://bs.plantnet.org/image/o/270824e4818e72691878f3e33d867db6af0074b8",
      "synonyms": [
        "Quercus palaestina",
        "Quercus coccifera var. refracta",
        "Quercus calliprinos var. dipsacina",
        "Quercus coccifera f. exserta",
        "Quercus coccifera subsp. calliprinos",
        "Quercus dipsacina",
        "Quercus coccifera f. crassicupulata",
        "Quercus calliprinos var. consobrina",
        "Quercus calliprinos",
        "Quercus calliprinos var. palaestina",
        "Quercus calliprinos var. arcuata",
        "Quercus calliprinos var. fenzlii",
        "Quercus coccifera var. corcyrensis",
        "Quercus coccifera f. integrifolia",
        "Quercus coccifera subsp. cryptocarpa",
        "Quercus coccifera var. angustata",
        "Quercus arcuata",
        "Quercus coccifera var. echinata",
        "Quercus coccifera f. microphylla",
        "Quercus sibthorpii",
        "Quercus coccifera var. integrifolia",
        "Quercus coccifera f. sphaerocarpa",
        "Quercus brachybalanos",
        "Scolodrys rigida",
        "Quercus calliprinos var. inops",
        "Quercus coccifera var. rigida",
        "Quercus coccifera subsp. palaestina",
        "Quercus calliprinos var. valida",
        "Quercus obtecta",
        "Ilex aculeata",
        "Quercus pseudorigida",
        "Quercus coccifera var. vera",
        "Quercus coccifera var. dolichocarpa",
        "Quercus coccifera var. stenocarpa",
        "Quercus recurvans",
        "Quercus coccifera f. echinata",
        "Quercus coccifera var. microcarpa",
        "Quercus calliprinos var. subglobosa",
        "Quercus coccifera f. puberula",
        "Quercus coccifera var. ubrellifera",
        "Quercus calliprinos var. integrifolia",
        "Quercus pentadactyla",
        "Quercus calliprinos var. brachybalanos",
        "Quercus fenzlii",
        "Quercus calliprinos var. rigida",
        "Quercus coccifera f. inclusa",
        "Quercus calliprinos var. eigii",
        "Quercus calliprinos var. puberula",
        "Quercus calliprinos var. recurvans",
        "Quercus coccifera var. palaestina",
        "Quercus coccifera f. brevicupulata",
        "Quercus coccifera var. calliprinos",
        "Quercus coccifera var. macrocarpa",
        "Quercus coccifera subsp. arcuata",
        "Quercus calliprinos var. leptolepis",
        "Quercus coccifera subsp. kryptocarpa",
        "Quercus calliprinos var. dispar",
        "Quercus coccifera var. adpressa",
        "Quercus coccifera f. dolichocarpa",
        "Quercus calliprinos var. pachybalanos",
        "Quercus coccifera f. macrocarpa",
        "Quercus coccifera var. ortholepis",
        "Quercus coccifera f. piriformis",
        "Quercus aquifolia",
        "Quercus chainolepis",
        "Quercus calliprinos var. eucalliprinos",
        "Quercus consobrina",
        "Quercus calliprinos var. subaquifolia"
      ],
      "genus": "Quercus",
      "family": "Fagaceae",
      "links": {
        "self": "/api/v1/species/quercus-coccifera",
        "plant": "/api/v1/plants/quercus-coccifera",
        "genus": "/api/v1/genus/quercus"
      }
    },
    {
      "id": 77026,
      "common_name": "Pin oak",
      "slug": "quercus-palustris",
      "scientific_name": "Quercus palustris",
      "year": 1770,
      "bibliography": "Hausvater 5: 253 (1770)",
      "author": "Münchh.",
      "status": "accepted",
      "rank": "species",
      "family_common_name": null,
      "genus_id": 3519,
      "image_url": "https://bs.plantnet.org/image/o/72ae6a0be634db3f6b6967bf81002c1423764358",
      "synonyms": [
        "Quercus palustris var. heterophylla",
        "Quercus rubra var. palustris",
        "Quercus rubra var. dissecta"
      ],
      "genus": "Quercus",
      "family": "Fagaceae",
      "links": {
        "self": "/api/v1/species/quercus-palustris",
        "plant": "/api/v1/plants/quercus-palustris",
        "genus": "/api/v1/genus/quercus"
      }
    }
  ],
  "links": {
    "self": "/api/v1/species/search?limit=5&page=2&q=quercus",
    "first": "/api/v1/species/search?limit=5&page=1&q=quercus",
    "prev": "/api/v1/species/search?limit=5&page=1&q=quercus",
    "next": "/api/v1/species/search?limit=5&page=3&q=quercus",
    "last": "/api/v1/species/search?limit=5&page=181&q=quercus"
  },
  "meta": {
    "total": 902
  }
}
